<?xml version="1.0" encoding="utf-8"?>
<!-- Generator: Adobe Illustrator 21.1.0, SVG Export Plug-In . SVG Version: 6.00 Build 0)  -->
<svg version="1.1" id="Layer_1" xmlns="http://www.w3.org/2000/svg" xmlns:xlink="http://www.w3.org/1999/xlink" x="0px" y="0px"
	 viewBox="0 0 47 47" style="enable-background:new 0 0 47 47;" xml:space="preserve">
<style type="text/css">
	.st0{fill:#2A2A2A;}
	.st1{fill:#FFFFFF;}
</style>
<title>sm-youtube</title>
<g id="Layer_2">
	<g id="Icons">
		<circle class="st0" cx="23.5" cy="23.5" r="23.5"/>
		<path class="st1" d="M29.6,12.5v5.7c-0.1,0.2-0.3,0.3-0.5,0.4c-0.2,0.1-0.3,0.2-0.4,0.2s-0.2-0.1-0.3-0.1s-0.1-0.2-0.1-0.4v-5.7
			h-1.6v6.2c0,0.3,0.1,0.7,0.2,1c0.2,0.2,0.5,0.3,0.8,0.3c0.3,0,0.6-0.1,0.9-0.2c0.3-0.2,0.6-0.4,0.9-0.7V20h1.6v-7.4L29.6,12.5z
			 M24.9,13c-0.4-0.4-1-0.6-1.6-0.6c-0.6,0-1.2,0.2-1.7,0.5c-0.4,0.3-0.6,0.9-0.6,1.4v3.9c-0.1,0.6,0.2,1.1,0.6,1.5
			c0.4,0.4,1,0.6,1.6,0.6c0.6,0,1.2-0.2,1.7-0.6c0.4-0.4,0.7-0.9,0.6-1.5v-3.8C25.6,13.9,25.3,13.3,24.9,13z M24,18.3
			c0,0.2-0.1,0.3-0.2,0.5c-0.1,0.1-0.3,0.2-0.5,0.2c-0.2,0-0.3-0.1-0.5-0.2c-0.1-0.1-0.2-0.3-0.2-0.5v-4c0-0.3,0.3-0.6,0.6-0.6
			c0.2,0,0.3,0.1,0.5,0.2c0.1,0.1,0.2,0.2,0.2,0.4L24,18.3z M19.2,9.9l-1.1,4H18l-1.1-4h-1.7l2.1,6.1v4H19v-4.2l2-5.9H19.2z
			 M31.2,27.7c0.1,0.2,0.2,0.4,0.2,0.6V29h-1.2v-0.7c0-0.2,0-0.5,0.2-0.6c0.1-0.1,0.3-0.2,0.5-0.2C30.9,27.6,31.1,27.6,31.2,27.7z
			 M26.5,27.7c-0.1-0.1-0.2-0.2-0.4-0.2c-0.1,0-0.2,0-0.2,0.1s-0.2,0.1-0.2,0.2V32c0.1,0.1,0.2,0.2,0.3,0.2c0.1,0.1,0.2,0.1,0.3,0.1
			c0.2,0,0.3-0.1,0.4-0.2c0.1-0.1,0.1-0.2,0.1-0.5v-3.5C26.6,28,26.6,27.8,26.5,27.7z M26.5,27.7c-0.1-0.1-0.2-0.2-0.4-0.2
			c-0.1,0-0.2,0-0.2,0.1s-0.2,0.1-0.2,0.2V32c0.1,0.1,0.2,0.2,0.3,0.2c0.1,0.1,0.2,0.1,0.3,0.1c0.2,0,0.3-0.1,0.4-0.2
			c0.1-0.1,0.1-0.2,0.1-0.5v-3.5C26.6,28,26.6,27.8,26.5,27.7z M34.1,22.4H12.9c-2.3,0-4.2,2-4.2,4.3c0,0,0,0,0,0V31
			c0,2.3,1.9,4.2,4.2,4.2h21.2c2.3,0,4.2-1.9,4.2-4.2v-4.3c0.1-2.3-1.8-4.2-4.1-4.3C34.2,22.4,34.1,22.4,34.1,22.4z M18.6,25.4H17
			v7.8h-1.6v-7.8h-1.6v-1.3h4.7C18.5,24.1,18.6,25.4,18.6,25.4z M23.1,33.3h-1.4v-0.8L21,33.2c-0.2,0.2-0.4,0.2-0.7,0.2
			c-0.3,0-0.5-0.1-0.7-0.3c-0.2-0.2-0.2-0.5-0.2-0.9v-5.7h1.3v5.2c0,0.2,0,0.2,0.1,0.3c0.1,0.1,0.1,0.1,0.2,0.1
			c0.1,0,0.2-0.1,0.4-0.2c0.2-0.1,0.3-0.2,0.4-0.3v-5.1h1.4C23.2,26.5,23.1,33.3,23.1,33.3z M28,31.9c0,0.4-0.1,0.8-0.3,1.1
			c-0.2,0.3-0.6,0.4-0.9,0.4c-0.2,0-0.5-0.1-0.7-0.2c-0.2-0.1-0.5-0.3-0.6-0.5v0.5h-1.4V24h1.4v3c0.2-0.2,0.4-0.3,0.6-0.5
			c0.2-0.1,0.5-0.2,0.7-0.2c0.4,0,0.7,0.2,1,0.4c0.2,0.4,0.3,0.8,0.3,1.2v4H28z M32.7,30.1h-2.6v1.2c0,0.3,0,0.6,0.1,0.7
			s0.2,0.2,0.5,0.2c0.2,0,0.4-0.1,0.5-0.2c0.1-0.2,0.2-0.5,0.2-0.7v-0.2h1.4v0.3c0,0.6-0.2,1.1-0.5,1.6c-0.4,0.4-1,0.5-1.5,0.5
			c-0.5,0-1.1-0.2-1.4-0.6c-0.3-0.5-0.5-1-0.5-1.6v-3.1c0-0.5,0.2-1.1,0.6-1.4c0.4-0.4,0.9-0.6,1.5-0.6c0.5,0,1,0.2,1.4,0.5
			c0.4,0.4,0.5,1,0.5,1.5V30h-0.2L32.7,30.1z M26.1,27.5c-0.1,0-0.2,0-0.2,0.1s-0.2,0.1-0.2,0.2V32c0.1,0.1,0.2,0.2,0.3,0.2
			c0.1,0.1,0.2,0.1,0.3,0.1c0.2,0,0.3-0.1,0.4-0.2c0.1-0.1,0.1-0.2,0.1-0.5v-3.5c0-0.2-0.1-0.4-0.2-0.5
			C26.4,27.6,26.3,27.5,26.1,27.5z M26.5,27.7c-0.1-0.1-0.2-0.2-0.4-0.2c-0.1,0-0.2,0-0.2,0.1s-0.2,0.1-0.2,0.2V32
			c0.1,0.1,0.2,0.2,0.3,0.2c0.1,0.1,0.2,0.1,0.3,0.1c0.2,0,0.3-0.1,0.4-0.2c0.1-0.1,0.1-0.2,0.1-0.5v-3.5
			C26.6,28,26.6,27.8,26.5,27.7z M26.5,27.7c-0.1-0.1-0.2-0.2-0.4-0.2c-0.1,0-0.2,0-0.2,0.1s-0.2,0.1-0.2,0.2V32
			c0.1,0.1,0.2,0.2,0.3,0.2c0.1,0.1,0.2,0.1,0.3,0.1c0.2,0,0.3-0.1,0.4-0.2c0.1-0.1,0.1-0.2,0.1-0.5v-3.5
			C26.6,28,26.6,27.8,26.5,27.7z"/>
	</g>
</g>
</svg>
